…
``` r

test <- print(solar_example$parsed_dataframe)
#> # A tibble: 1,700 × 3
#>    wavelength trapz_est color
#>         <dbl>     <dbl> <chr>
#>  1        301         0 uv-b 
#>  2        302         0 uv-b 
#>  3        303         0 uv-b 
#>  4        304         0 uv-b 
#>  5        305         0 uv-b 
#>  6        306         0 uv-b 
#>  7        307         0 uv-b 
#>  8        308         0 uv-b 
#>  9        309         0 uv-b 
#> 10        310         0 uv-b 
#> # ℹ 1,690 more rows
```
…
